Script to work with S2 bands derived from GEE
…
  # Read the file
  df <- read_csv(file) %>%
    mutate(biogeo = info$biogeo, unit = info$unit)
  
  return(df)
  })

# Combine all data
data_RS_S2_bands <- bind_rows(data_list)

# View the resulting tibble
print(data_RS_S2_bands)

# A tibble: 1,826,496 × 16
   `system:index`                       B11    B2    B3    B4    B8 PltObID UNIT  date       image_id time_utc timestamp  year .geo  biogeo unit 
   <chr>                              <dbl> <dbl> <dbl> <dbl> <dbl>   <dbl> <chr> <date>     <chr>    <time>       <dbl> <dbl> <chr> <chr>  <chr>
 1 20161228T102432_20161228T102428_T…   238  6291  5136  4013  2968    4120 ALPA… 2016-12-28 2016122… 10:27      1.48e12  2016 "{\"… ALP    ALPS 
 2 20161228T102432_20161228T102428_T…   235  6499  5267  4290  3231    4121 ALPA… 2016-12-28 2016122… 10:27      1.48e12  2016 "{\"… ALP    ALPS 
 3 20161228T102432_20161228T102428_T…   234  6653  5508  4326  3471    4122 ALPA… 2016-12-28 2016122… 10:27      1.48e12  2016 "{\"… ALP    ALPS 
 4 20161228T102432_20161228T102428_T…   307  6985  6060  5263  4353    4123 ALPA… 2016-12-28 2016122… 10:27      1.48e12  2016 "{\"… ALP    ALPS 
 5 20161228T102432_20161228T102428_T…   392  7232  6331  5443  4600    4124 ALPA… 2016-12-28 2016122… 10:27      1.48e12  2016 "{\"… ALP    ALPS 
 6 20161228T102432_20161228T102428_T…   392  7170  6351  5439  4764    4125 ALPA… 2016-12-28 2016122… 10:27      1.48e12  2016 "{\"… ALP    ALPS 
 7 20161228T102432_20161228T102428_T…   353  7304  6111  5324  4360    4126 ALPA… 2016-12-28 2016122… 10:27      1.48e12  2016 "{\"… ALP    ALPS 
 8 20161228T102432_20161228T102428_T…   353  7117  6171  5415  4272    4127 ALPA… 2016-12-28 2016122… 10:27      1.48e12  2016 "{\"… ALP    ALPS 
 9 20161228T102432_20161228T102428_T…   306  7147  6242  5111  4396    4128 ALPA… 2016-12-28 2016122… 10:27      1.48e12  2016 "{\"… ALP    ALPS 
10 20161228T102432_20161228T102428_T…   373  6743  5691  4705  3918    4129 ALPA… 2016-12-28 2016122… 10:27      1.48e12  2016 "{\"… ALP    ALPS 
# ℹ 1,826,486 more rows
# ℹ Use `print(n = ...)` to see more rows
…
