Script to work with Satellite Embeddings dataset bands derived from GEE
…
  # Read the file
  df <- read_csv(file) %>%
    mutate(biogeo = info$biogeo, unit = info$unit)
  
  return(df)
  })

# Combine all data
data_RS_SatEmb_bands <- bind_rows(data_list) %>%
  rename(PlotObservationID = PltObID)

# View the resulting tibble
print(data_RS_SatEmb_bands)

# A tibble: 28,713 × 75
   `system:index`     A00     A01     A02      A03    A04    A05    A06    A07    A08      A09      A10    A11     A12      A13    A14      A15    A16     A17     A18     A19
   <chr>            <dbl>   <dbl>   <dbl>    <dbl>  <dbl>  <dbl>  <dbl>  <dbl>  <dbl>    <dbl>    <dbl>  <dbl>   <dbl>    <dbl>  <dbl>    <dbl>  <dbl>   <dbl>   <dbl>   <dbl>
 1 1_x76kf3t0aaj… 0.00394  0.0178 -0.0936  2.46e-2 0.0591 -0.200 0.0517 0.0888 0.0630  0.0157  -0.0246  0.136  -0.0842 -0.0936  -0.310 -0.114   0.0984  0.0517 -0.109   0.0842
 2 1_x76kf3t0aaj… 0.0711  -0.0888 -0.0754  7.54e-2 0.0842 -0.16  0.136  0.0554 0.0797 -0.114    0.207   0.221  -0.173  -0.0416  -0.244 -0.0754  0.125  -0.0936 -0.236  -0.0482
 3 1_x76kf3t0aaj… 0.0354  -0.0936 -0.0448 -1.38e-2 0.0670 -0.154 0.109  0.136  0.119  -0.0517   0.114   0.207  -0.130  -0.0178  -0.214  0.0138  0.125  -0.136  -0.214  -0.200 
 4 1_x76kf3t0aaj… 0.0554  -0.0842 -0.0754 -6.15e-5 0.0517 -0.166 0.0984 0.193  0.148  -0.0199   0.0842  0.148  -0.173  -0.0199  -0.214  0.0354  0.136  -0.0842 -0.193  -0.221 
 5 1_x76kf3t0aaj… 0.0178  -0.0936 -0.0591 -1.38e-2 0.0554 -0.154 0.114  0.0936 0.114  -0.0271   0.0984  0.16   -0.142  -0.0448  -0.214  0.00886 0.142  -0.0271 -0.200  -0.214 
 6 1_x76kf3t0aaj… 0.0178  -0.0936 -0.0591 -1.38e-2 0.0554 -0.154 0.114  0.0936 0.114  -0.0271   0.0984  0.16   -0.142  -0.0448  -0.214  0.00886 0.142  -0.0271 -0.200  -0.214 
 7 1_x76kf3t0aaj… 0.0482  -0.0842 -0.0670  6.15e-3 0.0591 -0.154 0.125  0.16   0.130  -0.0199   0.103   0.16   -0.179  -0.00498 -0.221  0.0325  0.142  -0.0984 -0.214  -0.236 
 8 1_x76kf3t0aaj… 0.0354  -0.103  -0.0936  4.82e-2 0.0630 -0.244 0.119  0.142  0.0797 -0.0482   0.0888  0.236  -0.16   -0.0354  -0.252  0.0354  0.0984 -0.221  -0.236  -0.0104
 9 1_x76kf3t0aaj… 0.0416  -0.0797 -0.0554  2.71e-2 0.0797 -0.229 0.125  0.114  0.0630 -0.00744  0.00615 0.244  -0.166   0.00615 -0.276  0.0670  0.0936 -0.186  -0.207   0.0354
10 1_x76kf3t0aaj… 0.00744 -0.0416 -0.0298 -9.84e-2 0.0121 -0.229 0.0936 0.103  0.0754  0.148   -0.355   0.0554 -0.103  -0.0138  -0.328  0.0298  0.0984  0.0104 -0.0630 -0.0554
# ℹ 28,703 more rows
# ℹ 54 more variables: A20 <dbl>, A21 <dbl>, A22 <dbl>, A23 <dbl>, A24 <dbl>, A25 <dbl>, A26 <dbl>, A27 <dbl>, A28 <dbl>, A29 <dbl>, A30 <dbl>, A31 <dbl>, A32 <dbl>,
#   A33 <dbl>, A34 <dbl>, A35 <dbl>, A36 <dbl>, A37 <dbl>, A38 <dbl>, A39 <dbl>, A40 <dbl>, A41 <dbl>, A42 <dbl>, A43 <dbl>, A44 <dbl>, A45 <dbl>, A46 <dbl>, A47 <dbl>,
#   A48 <dbl>, A49 <dbl>, A50 <dbl>, A51 <dbl>, A52 <dbl>, A53 <dbl>, A54 <dbl>, A55 <dbl>, A56 <dbl>, A57 <dbl>, A58 <dbl>, A59 <dbl>, A60 <dbl>, A61 <dbl>, A62 <dbl>,
#   A63 <dbl>, PlotObservationID <dbl>, UNIT <chr>, date <date>, image_id <chr>, time_utc <time>, timestamp <dbl>, year <dbl>, .geo <chr>, biogeo <chr>, unit <chr>
# ℹ Use `print(n = ...)` to see more rows
…
