Script to work with Landsat bands derived from GEE
…
  return(df)
  })

# Combine all data
data_RS_Landsat_bands_obs <- bind_rows(data_list) %>%
  rename(PlotObservationID = PltObID) %>%
  select(-UNIT)

# View the resulting tibble
print(data_RS_Landsat_bands_obs)

# A tibble: 1,973,426 × 15
   `system:index`                          Blue Green   NIR PlotObservationID   Red SWIR1 date       image_id time_utc timestamp  year .geo  biogeo unit 
   <chr>                                  <dbl> <dbl> <dbl>             <dbl> <dbl> <dbl> <date>     <chr>    <time>       <dbl> <dbl> <chr> <chr>  <chr>
 1 59_1_1_1_LT05_193027_19840607_0000000… 16809 16904 20890            346390 16488 15827 1984-06-07 1_1_1_L… 09:32      4.55e11  1984 "{\"… ALP    ALPS 
 2 59_1_1_1_LT05_193027_19841013_0000000…  9343 10007 16716            346390  9766 13699 1984-10-13 1_1_1_L… 09:34      4.67e11  1984 "{\"… ALP    ALPS 
 3 59_1_1_1_LT05_193027_19841029_0000000…  8468  8600 11207            346390  8699  8505 1984-10-29 1_1_1_L… 09:34      4.68e11  1984 "{\"… ALP    ALPS 
 4 59_1_1_1_LT05_193028_19841013_0000000… 10238 11034 18162            346268 11384 17787 1984-10-13 1_1_1_L… 09:34      4.67e11  1984 "{\"… ALP    ALPS 
 5 59_1_1_1_LT05_193028_19841013_0000000…  9419 10032 16720            346390  9787 12995 1984-10-13 1_1_1_L… 09:34      4.67e11  1984 "{\"… ALP    ALPS 
 6 59_1_1_1_LT05_193028_19841013_0000000… 10212 11428 19190            346415 12091 18910 1984-10-13 1_1_1_L… 09:34      4.67e11  1984 "{\"… ALP    ALPS 
 7 59_1_1_1_LT05_193028_19841013_0000000… 10780 12038 17743            346455 12626 16514 1984-10-13 1_1_1_L… 09:34      4.67e11  1984 "{\"… ALP    ALPS 
 8 59_1_1_1_LT05_193028_19841013_0000000…  8999  8985 12343            346490  9055  9882 1984-10-13 1_1_1_L… 09:34      4.67e11  1984 "{\"… ALP    ALPS 
 9 59_1_1_1_LT05_193028_19841013_0000000…  8992  9394 12968            346521  9054 10590 1984-10-13 1_1_1_L… 09:34      4.67e11  1984 "{\"… ALP    ALPS 
10 59_1_1_1_LT05_193028_19841013_0000000… 10238 11034 18989            346554 11384 18632 1984-10-13 1_1_1_L… 09:34      4.67e11  1984 "{\"… ALP    ALPS 
# ℹ 1,973,416 more rows
# ℹ Use `print(n = ...)` to see more rows
…
  return(df)
  })

# Combine all data
data_RS_Landsat_bands_prev <- bind_rows(data_list) %>%
  rename(PlotObservationID = PltObID) %>%
  select(-UNIT)

# View the resulting tibble
print(data_RS_Landsat_bands_prev)

# A tibble: 1,926,225 × 17
   `system:index`    Blue Green   NIR PlotObservationID   Red SWIR1 date       image_id image_year point_year time_utc timestamp  year .geo  biogeo unit 
   <chr>            <dbl> <dbl> <dbl>             <dbl> <dbl> <dbl> <date>     <chr>         <dbl>      <dbl> <time>       <dbl> <dbl> <chr> <chr>  <chr>
 1 60_1_1_1_LT05_1… 15238 15770 18170            395018 15885 16411 1985-03-31 1_1_1_L…       1985       1986 09:28      4.81e11  1986 "{\"… ALP    ALPS 
 2 60_1_1_1_LT05_1… 15436 16067 18637            395019 16017 17597 1985-03-31 1_1_1_L…       1985       1986 09:28      4.81e11  1986 "{\"… ALP    ALPS 
 3 60_1_1_1_LT05_1… 10052 11263 18370            395012 12019 20620 1985-04-16 1_1_1_L…       1985       1986 09:28      4.82e11  1986 "{\"… ALP    ALPS 
 4 60_1_1_1_LT05_1… 10323 11258 17746            395013 11882 19893 1985-04-16 1_1_1_L…       1985       1986 09:28      4.82e11  1986 "{\"… ALP    ALPS 
 5 60_1_1_1_LT05_1…  9785 10514 15156            395014 10840 16862 1985-04-16 1_1_1_L…       1985       1986 09:28      4.82e11  1986 "{\"… ALP    ALPS 
 6 60_1_1_1_LT05_1…  9720 10820 17513            395015 10842 18251 1985-04-16 1_1_1_L…       1985       1986 09:28      4.82e11  1986 "{\"… ALP    ALPS 
 7 60_1_1_1_LT05_1…  9929 10818 15303            395016 11236 17159 1985-04-16 1_1_1_L…       1985       1986 09:28      4.82e11  1986 "{\"… ALP    ALPS 
 8 60_1_1_1_LT05_1…  9790 10939 17874            395017 11086 18300 1985-04-16 1_1_1_L…       1985       1986 09:28      4.82e11  1986 "{\"… ALP    ALPS 
 9 60_1_1_1_LT05_1…  9760 10806 17523            395018 10966 18061 1985-04-16 1_1_1_L…       1985       1986 09:28      4.82e11  1986 "{\"… ALP    ALPS 
10 60_1_1_1_LT05_1…  9958 10951 17966            395019 10831 18661 1985-04-16 1_1_1_L…       1985       1986 09:28      4.82e11  1986 "{\"… ALP    ALPS 
# ℹ 1,926,215 more rows
# ℹ Use `print(n = ...)` to see more rows
…
  return(df)
  })

# Combine all data
data_RS_Landsat_bands_post <- bind_rows(data_list) %>%
  rename(PlotObservationID = PltObID) %>%
  select(-UNIT)

# View the resulting tibble
print(data_RS_Landsat_bands_post)

# A tibble: 2,093,662 × 17
   `system:index`    Blue Green   NIR PlotObservationID   Red SWIR1 date       image_id image_year point_year time_utc timestamp  year .geo  biogeo unit 
   <chr>            <dbl> <dbl> <dbl>             <dbl> <dbl> <dbl> <date>     <chr>         <dbl>      <dbl> <time>       <dbl> <dbl> <chr> <chr>  <chr>
 1 58_1_1_1_LT05_1… 10143 11034 18369            346620 11384 17928 1984-10-13 1_1_1_L…       1984       1983 09:34      4.67e11  1983 "{\"… ALP    ALPS 
 2 58_1_1_1_LT05_1…  9006 10194 18659            346620 10245 17805 1984-09-02 1_1_1_L…       1984       1983 09:40      4.63e11  1983 "{\"… ALP    ALPS 
 3 58_1_1_1_LT05_1…  9001 10196 18493            346620 10244 17580 1984-09-02 1_1_1_L…       1984       1983 09:40      4.63e11  1983 "{\"… ALP    ALPS 
 4 59_1_1_1_LT05_1…  8676  9580 17739            346390  9130 14456 1985-07-12 1_1_1_L…       1985       1984 09:34      4.90e11  1984 "{\"… ALP    ALPS 
 5 59_1_1_1_LT05_1…  8673  9509 17734            346390  9132 14085 1985-08-29 1_1_1_L…       1985       1984 09:33      4.94e11  1984 "{\"… ALP    ALPS 
 6 59_1_1_1_LT05_1…  9191  9785 18198            346390  9642 15921 1985-09-14 1_1_1_L…       1985       1984 09:33      4.96e11  1984 "{\"… ALP    ALPS 
 7 59_1_1_1_LT05_1… 12438 11564  9529            346390 10465  7616 1985-11-17 1_1_1_L…       1985       1984 09:32      5.01e11  1984 "{\"… ALP    ALPS 
 8 59_1_1_1_LT05_1… 10120 11133 19437            346268 10859 16028 1985-06-26 1_1_1_L…       1985       1984 09:34      4.89e11  1984 "{\"… ALP    ALPS 
 9 59_1_1_1_LT05_1…  9598 10882 19342            346402 10745 16776 1985-06-26 1_1_1_L…       1985       1984 09:34      4.89e11  1984 "{\"… ALP    ALPS 
10 59_1_1_1_LT05_1… 10200 11376 20001            346415 11424 17776 1985-06-26 1_1_1_L…       1985       1984 09:34      4.89e11  1984 "{\"… ALP    ALPS 
# ℹ 2,093,652 more rows
# ℹ Use `print(n = ...)` to see more rows
…
